(kicad_symbol_lib (version 20220914) (generator kicad_symbol_editor)
  (symbol "VL53L1CXV0FY1" (in_bom yes) (on_board yes)
    (property "Reference" "U" (at -6.35 13.97 0)
      (effects (font (size 1.27 1.27)))
    )
    (property "Value" "VL53L1CXV0FY1" (at 12.065 13.97 0)
      (effects (font (size 1.27 1.27)))
    )
    (property "Footprint" "Sensor_Distance:ST_VL53L1x" (at 17.145 -13.97 0)
      (effects (font (size 1.27 1.27)) hide)
    )
    (property "Datasheet" "https://www.st.com/resource/en/datasheet/vl53l1x.pdf" (at 2.54 0 0)
      (effects (font (size 1.27 1.27)) hide)
    )
    (property "ki_keywords" "VL53L1x ToF" (at 0 0 0)
      (effects (font (size 1.27 1.27)) hide)
    )
    (property "ki_description" "4m distance ranging ToF sensor" (at 0 0 0)
      (effects (font (size 1.27 1.27)) hide)
    )
    (property "ki_fp_filters" "ST*VL53L1x*" (at 0 0 0)
      (effects (font (size 1.27 1.27)) hide)
    )
    (symbol "VL53L1CXV0FY1_0_1"
      (rectangle (start -7.62 12.7) (end 7.62 -12.7)
        (stroke (width 0.254) (type default))
        (fill (type background))
      )
    )
    (symbol "VL53L1CXV0FY1_1_1"
      (pin power_in line (at 2.54 15.24 270) (length 2.54)
        (name "AVDDVCSEL" (effects (font (size 1.27 1.27))))
        (number "1" (effects (font (size 1.27 1.27))))
      )
      (pin input line (at -10.16 -2.54 0) (length 2.54)
        (name "SCL" (effects (font (size 1.27 1.27))))
        (number "10" (effects (font (size 1.27 1.27))))
      )
      (pin power_in line (at 0 15.24 270) (length 2.54)
        (name "AVDD" (effects (font (size 1.27 1.27))))
        (number "11" (effects (font (size 1.27 1.27))))
      )
      (pin passive line (at 0 -15.24 90) (length 2.54) hide
        (name "GND" (effects (font (size 1.27 1.27))))
        (number "12" (effects (font (size 1.27 1.27))))
      )
      (pin power_in line (at 2.54 -15.24 90) (length 2.54)
        (name "AVSSVCSEL" (effects (font (size 1.27 1.27))))
        (number "2" (effects (font (size 1.27 1.27))))
      )
      (pin power_in line (at 0 -15.24 90) (length 2.54)
        (name "GND" (effects (font (size 1.27 1.27))))
        (number "3" (effects (font (size 1.27 1.27))))
      )
      (pin passive line (at 0 -15.24 90) (length 2.54) hide
        (name "GND" (effects (font (size 1.27 1.27))))
        (number "4" (effects (font (size 1.27 1.27))))
      )
      (pin input line (at -10.16 -7.62 0) (length 2.54)
        (name "XSHUT" (effects (font (size 1.27 1.27))))
        (number "5" (effects (font (size 1.27 1.27))))
      )
      (pin passive line (at 0 -15.24 90) (length 2.54) hide
        (name "GND" (effects (font (size 1.27 1.27))))
        (number "6" (effects (font (size 1.27 1.27))))
      )
      (pin open_collector line (at -10.16 5.08 0) (length 2.54)
        (name "GPIO1" (effects (font (size 1.27 1.27))))
        (number "7" (effects (font (size 1.27 1.27))))
      )
      (pin no_connect line (at -7.62 7.62 0) (length 2.54) hide
        (name "DNC" (effects (font (size 1.27 1.27))))
        (number "8" (effects (font (size 1.27 1.27))))
      )
      (pin bidirectional line (at -10.16 0 0) (length 2.54)
        (name "SDA" (effects (font (size 1.27 1.27))))
        (number "9" (effects (font (size 1.27 1.27))))
      )
    )
  )
  (symbol "VL53L0CXV0DH1" (extends "VL53L1CXV0FY1")
    (property "Reference" "U" (at -6.35 13.97 0)
      (effects (font (size 1.27 1.27)))
    )
    (property "Value" "VL53L0CXV0DH1" (at 12.065 13.97 0)
      (effects (font (size 1.27 1.27)))
    )
    (property "Footprint" "Sensor_Distance:ST_VL53L1x" (at 17.145 -13.97 0)
      (effects (font (size 1.27 1.27)) hide)
    )
    (property "Datasheet" "https://www.st.com/resource/en/datasheet/vl53l0x.pdf" (at 2.54 0 0)
      (effects (font (size 1.27 1.27)) hide)
    )
    (property "ki_keywords" "VL53L0x ToF" (at 0 0 0)
      (effects (font (size 1.27 1.27)) hide)
    )
    (property "ki_description" "2m distance ranging ToF sensor" (at 0 0 0)
      (effects (font (size 1.27 1.27)) hide)
    )
    (property "ki_fp_filters" "ST*VL53L1x*" (at 0 0 0)
      (effects (font (size 1.27 1.27)) hide)
    )
  )
)
